# A tibble: 1,000 × 4
       a      b c     d         
   <int>  <dbl> <chr> <date>    
 1     1  0.315 A     2020-01-01
 2     2  2.36  B     2020-01-02
 3     3 -0.437 A     2020-01-03
 4     4  0.271 B     2020-01-04
 5     5 -1.15  A     2020-01-05
 6     6 -0.577 B     2020-01-06
 7     7  1.29  A     2020-01-07
 8     8  0.787 B     2020-01-08
 9     9 -0.903 A     2020-01-09
10    10  0.407 B     2020-01-10
# ℹ 990 more rows
# ℹ Use `print(n = ...)` to see more rows
